Quality check 02, Partial intersections of blocks and community districts
…
List blocks that are split between communities

bl_counts                              %>%
  mutate(dev=abs(bl_prop_in-0.5))      %>%
  arrange(dev)                          -> dev
dev                                    %>%
  print(n=20)

## # A tibble: 21,578 x 10
##    tr_id       bg_id    bl_id cd_id bl_pr~1 people peopl~2 units units~3     dev
##    <chr>       <chr>    <chr> <dbl>   <dbl>  <dbl>   <dbl> <dbl>   <dbl>   <dbl>
##  1 20209044002 2020904~ 2020~   216   0.502      0       0     0       0 0.00200
##  2 20209044002 2020904~ 2020~   214   0.498      0       0     0       0 0.00200
##  3 29047020802 2904702~ 2904~   122   0.493      0       0     1       0 0.00700
##  4 29095013003 2909501~ 2909~   132   0.492      0       0     0       0 0.00800
##  5 29095013003 2909501~ 2909~   127   0.508      0       0     0       0 0.00800
##  6 29095016300 2909501~ 2909~   102   0.487      0       0     0       0 0.0130 
##  7 29095016300 2909501~ 2909~   101   0.513      0       0     0       0 0.0130 
##  8 20209040200 2020904~ 2020~   203   0.513      0       0     0       0 0.0130 
##  9 20209043000 2020904~ 2020~   210   0.515      0       0     0       0 0.0150 
## 10 20209043000 2020904~ 2020~   209   0.485      0       0     0       0 0.0150 
## 11 29165030201 2916503~ 2916~   123   0.482     24      12     1       0 0.0180 
## 12 20209040200 2020904~ 2020~   219   0.482      0       0     0       0 0.0180 
## 13 29165030201 2916503~ 2916~   124   0.518     24      12     1       1 0.0180 
## 14 20209980500 2020998~ 2020~   208   0.522      0       0     0       0 0.0220 
## 15 20209980500 2020998~ 2020~   202   0.478      0       0     0       0 0.0220 
## 16 29095012400 2909501~ 2909~   101   0.477     20      10     2       1 0.0230 
## 17 29165030201 2916503~ 2916~   121   0.476    141      67    65      31 0.0240 
## 18 20209043000 2020904~ 2020~   211   0.524      0       0     0       0 0.0240 
## 19 20209043000 2020904~ 2020~   210   0.476      0       0     0       0 0.0240 
## 20 29165030201 2916503~ 2916~   124   0.524    141      74    65      34 0.0240 
## # ... with 21,558 more rows, and abbreviated variable names 1: bl_prop_in,
## #   2: people_in, 3: units_in
## # i Use `print(n = ...)` to see more rows
…
