Quality check 03, Block group intersections with community districts
…
    bg_counts                            %>%
      filter(cd_id==i_cd)                %>%
      filter(bg_id==i_bg)                %>%
      data.frame                         %>%
      print
    bl_counts                            %>%
      filter(cd_id==i_cd)                %>%
      filter(bg_id==i_bg)                %>%
      select(-bg_id)                     %>%
      data.frame                         %>%
      print
  }
}

## # A tibble: 33 x 2
##    bg_id        bg_prop_in
##    <chr>             <dbl>
##  1 290950163001  0.892    
##  2 290950155002  0.00505  
##  3 290950171004  0.734    
##  4 290950058013  0.664    
##  5 290950156002  0.0000110
##  6 290950170001  0.000362 
##  7 290950156001  0.00614  
##  8 290959808021  0.000421 
##  9 290950155003  0.989    
## 10 290950021004  1.00     
## # ... with 23 more rows
## 33 block groups touch or intersect community district
## 0 block groups lie entirely inside community district
## 9 block groups lie mostly inside community district
## 13 block groups lie partially inside community district
## 11 block groups lie mostly outside community district
…
